:20000000A58A010200A58A000000A58A000000A58A000000A58A000000A58A000000A58A94
:20002000000000A58A000000A58A000000A58A000000A58A000000A58A000000A58A0102A3
:20004000BEA58A010287A58A0107A7A58A000000A58A000000A58A000000A58A000000A5EA
:040060008A00000012
:20010000A58AFF0100A58AFF0103A58AFF0106A58AFF0109A58AFF010CA58AFF010FA58A69
:20012000FF0112A58AFF0115A58AFF0118A58AFF011BA58AFF011EA58AFF0121A58AFF010C
:2001400024A58AFF0127A58AFF012AA58AFF012DA58AFF0130A58AFF0133A58AFF0136A5A5
:200160008AFF0139A58AFF013CA58AFF013FA58AFF0142A58AFF0145A58AFF0148A58AFF59
:20018000014BA58AFF014EA58AFF0151A58AFF0154A58AFF0157A58AFF015AA58AFF015DF8
:0A01A000A58AFF0160A58AFF016334
:20020000A59A0101824669726D7761726520656E7472792E0A0D00D200120239A59A0101E7
:20022000824669726D7761726520737461727465642E0A0D007400A5AA78A08835A57A03E9
:200240004002A57E040001A57E147FF27C0D7D00A57A0B50A52E080001DCF5A57E04000137
:20026000A57E147FE47C0D7D00A57A0B50A52E080001DCF5C202C203C204C205A57E040476
:2002800000A57A07010022C290300407D290300508C20520020620030C02013CC202A57EA5
:2002A000147FF28007C203A57E147FE4A57E0400017C681209A870027400F53080DB12028A
:2002C000C6A58A0101379002CD758501730203150203150203150203150203150203150285
:2002E00003150203150203150203150203150203150203150203150203150203150203C82F
:200300000203260203150203150203150203150203150203152222222222222222222222A0
:20032000222222222222C0E0E542A59EB0104021A5BEB003501BA5DA08A5CAEBF5F025F06A
:2003400025F0900355758501120354A5DAEB74FF22D0E0227302035E020375020386C0E0F0
:2003600075F30175F30075F30075F30075F70075F604D0E022C0E075F30C75F32275F70025
:2003800075F603D0E022C0E0A5CA08A57EB34002A55EB004A56805A57EB340007810A57E64
:2003A000B3400253E001A5780BA57EB34000A57AB1F3D8EAA57EB010A59CB075F700A57AF2
:2003C000B1F6A5DA08D0E022C0E0E542A59EB0104024A5BEB006501EA5DA08A5CAEBF5F0A2
:2003E00025F025F09003FE7585011203FDA5DAEB1203F974FF22D0E02275F6002273020450
:20040000100205EB0206880206A10206A402073DA5CA09A57E040001A57A0529A57E040497
:2004200043A57A052BA57E040000A57A0531E52D700D74FFF52DA57E040000A57A052EA56C
:20044000DA0922A5CA0BA5CA1BA5CA49A57E040000A57E1400497C00AD59A5BE5000A568F2
:200460002E74FFB52D29A5CA29A57D42A57E240001E546A57E347FF214600EA57E347FE45D
:20048000146006A5DA290204D71204FDA5DA29A59A010196A57E0531A52D02A57A0531A5A4
:2004A0007E0531A57E1543A5BD01A5781F74FFB52D1A7400F52DE54612097B701EE54614DB
:2004C0007004D2028002D2037400F530A5DA49A5DA1BA5DA0BA5AA740A8000A59A010182E8
:2004E000494441432D424F58206572726F723A00A59A010173A59A01016E0204CAA5CA09A6
:20050000A57E0531A52D02A5DA09A57E0BB0A52E080001A57A1BB0A57E1BA0A5BCABA5787B
:2005200011A52E180001A51B44A5BE440000A578D922A59A010182436F707949444143424A
:200540004F585061636B65743A204E6F2052414D00A59A01016E22A5CAA8A5CA69A5CA490D
:20056000A57E0BB0C0E003547FA57CABD0E0A57EC07FA57ED08020E004A57ED000A57CBA04
:20058000540705E0C0E0A57CBC23A57CCBA57CBD23A57CDBD0E0D5E0EBA57CBA13131354DA
:2005A0000FA5BEB00D5038A57C9BA57E8000A5CA39A52D34A57E1BB0A55CBCA54CBDA57AFF
:2005C0001BB0A5DA39A52E080001A5DA49A51B44A5BE440000A57885A5DA69A5DAA822A5D1
:2005E000DA49A5DA69A5DAA8E50B22A5CA09A57E040001A57A0529A57E040623A57A052B2B
:20060000A57E040000A57A0531E52D7012120837700D74FFF52DA57E040000A57A052EA549
:20062000DA0922A5CA0BA5CA1BA57E040000A57E1400497C00AD59A5BE5000A5681174FF44
:20064000B52D0CA5CA29A57C45120859A5DA29A59A010196A57E0531A52D02A57A0531A595
:200660007E0531A57E1543A5BD01A5780E74FFB52D097400F52D120878700AF530A5DA1BFE
:20068000A5DA0BA5AA02067BD204A835A54E0080A57A034002A55E007F8835A57A034002D1
:2006A00022C20422A5CA09A57E040001A57A0529A57E0406D7A57A052BA57E040000A57AAA
:2006C0000531E52D700D74FFF52DA57E040000A57A052EA5DA0922A5CA0BA5CA1BA57E0472
:2006E0000000A57E1400497C00AD59A5BE5000A5681774FFB52D12A5CA29A57C45A51E40B9
:2007000050010C12088EA5DA29A59A010196A57E0531A52D02A57A0531A57E0531A57E1542
:2007200043A5BD01A5780C1208D374FFB52D047400F52DF530A5DA1BA5DA0BA5AAA57E054E
:2007400043A5BE0404015012A5BE040000A56833A57A0701007400F53022A59A01018246F6
:2007600072616D652073697A6520746F6F206C6172676520283E31303234292E0A0D00742D
:200780000C80D4A59A0101824672616D652073697A6520746F6F20736D616C6C2E0A0D0080
:2007A000740D80B302082AC0F1A5CA09A5CA1975F101A5A921F2EDA5A922F5E8D291D20564
:2007C000200403020817A57EB34003604AA57EB34002A55EB002A5680AA59A0101824F76A2
:2007E0006C2000A57EB34002A55EB004A5680CA57EB34000A57EB34003601C75F3017800F9
:20080000A57EB34000A57AB1F3D8F5A57E1401018AF78BF602082A75F3FF780075F304D8A0
:20082000FBA57E1401018AF78BF6C291A5DA19A5DA09D0F1020141A5CA08A835A54E00C003
:20084000A57A034002A55E007FA57A03400288351208F9A5DA08740022A5CA0BA5CA48A58B
:200860007E0BB0A57AB34001A52E080001DCF0A5DA48A5DA0B740022A5CA08A835A55E0046
:20088000BFA57A0340028835A5DA08740022A5CA0BA5CA48A5CA59A57E5403E8A51B54608C
:2008A00026A59A0101A0A57EB3400230E3EE1208D21208D21208D2A50B0A50A57A57400094
:2008C000A52E080002DCD0A5DA59A5DA48A5DA0B7400221208D21208D21208D2A57EB13503
:2008E000A54EB001A57AB340021208D21208D2A57EB135A57AB3400222A5CA08A835A54EE2
:200900000020A57A034002120A20A835A55E00DFA57A0340028835A5DA0822A5CA08A57EF4
:20092000034002E85403A5DA0822A5CA08A57E034002E820E207C4540FA5DA0822A57E03C4
:20094000400180E9C0E0A5CA0BA57E140100A57E07400088F389F3DBF5DAF3A5DA0BD0E063
:2009600022A5CA09A8357880A57A034002120A20A835A57A034002A5DA0922A59A0101A09C
:20098000602314A5BEB002501CA5CA08780060027808E53554E748F88835A57A034002A513
:2009A000DA08740022740A22A5CA0BA5CA1BE53554EFFDA57A5340028D35A57C74A55E7043
:2009C00007A51E40A51E40A51E406000A57E0BB07D08A57AB340030300A57E634003DDF294
:2009E000A52E080001DCE5EF6017A57E0BB0A57C570D23A57AB340030000A57E634003DDB3
:200A0000F1E535FAA54E2010A57A234002120A20AA35A57A234002A5DA1BA5DA0B740022D1
:170A2000A5CA087840D8FEA5DA0822A57EB3400222A57EB34003229C
:00000001FF
